{"success":"success","message":null,"detailMsg":{"data":{"content":[{"metaDefinedName":"telbook","namespace":"metadata","status":0,"changedPropertyNames":null,"institid":"761dc79a-69ac-490b-8868-4e1e4f42d039","id":"ae691b6c-1175-4812-a52d-bb6928e3ff64","peoname":"朱恺","peocode":"0012","institname":"用友网络IUAP开发平台","worktel":"18652438765","email":"zhukai@yonou.com","sex":null,"tel":null,"office":null,"countryzone":null,"dr":0,"ts":1482302249000},{"metaDefinedName":"telbook","namespace":"metadata","status":0,"changedPropertyNames":null,"institid":"761dc79a-69ac-490b-8868-4e1e4f42d039","id":"f6c57f28-efd9-4278-bbde-3dd79340d1d1","peoname":"邓红霞","peocode":"006","institname":"用友网络IUAP开发平台","worktel":"18678765436","email":"denghx@yonyou.com","sex":null,"tel":null,"office":null,"countryzone":null,"dr":0,"ts":1481768813000},{"metaDefinedName":"telbook","namespace":"metadata","status":0,"changedPropertyNames":null,"institid":"761dc79a-69ac-490b-8868-4e1e4f42d039","id":"e086dcd3-c7e7-4c83-8ee1-866f3047c3ab","peoname":"吴学军","peocode":"007","institname":"用友网络IUAP开发平台","worktel":"18678765436","email":"wuxj@yonyou.com","sex":null,"tel":null,"office":null,"countryzone":null,"dr":0,"ts":1481768859000},{"metaDefinedName":"telbook","namespace":"metadata","status":0,"changedPropertyNames":null,"institid":"761dc79a-69ac-490b-8868-4e1e4f42d039","id":"e6c821fc-d310-4069-813d-c14894464079","peoname":"郑凯","peocode":"008","institname":"用友网络IUAP开发平台","worktel":"18678765436","email":"zhengkai@yonyou.com","sex":null,"tel":null,"office":null,"countryzone":null,"dr":0,"ts":1481768882000},{"metaDefinedName":"telbook","namespace":"metadata","status":0,"changedPropertyNames":null,"institid":"761dc79a-69ac-490b-8868-4e1e4f42d039","id":"ca8b804e-c3ee-495c-8bf3-e83cd4a25a4c","peoname":"曾宪盛","peocode":"013","institname":"用友网络IUAP开发平台","worktel":"18635479864","email":"zengxs@yonyou.com","sex":null,"tel":null,"office":null,"countryzone":null,"dr":0,"ts":1482301948000}],"last":false,"totalPages":2,"totalElements":7,"size":5,"number":0,"first":true,"sort":[{"direction":"ASC","property":"peocode","ignoreCase":false,"nullHandling":"NATIVE","ascending":true}],"numberOfElements":5}}}
