{"success":"success","message":null,"detailMsg":{"data":{"content":[{"metaDefinedName":"sysUser","namespace":"metadata","status":0,"changedPropertyNames":null,"id":"c56f8c11-39b4-411a-8593-121a7a5b0d1f","orgid":"c367c969-c676-4a6e-9254-23ff9444c3d4","orgname":"用友网络上海分公司","loginname":"qqq","username":"wwww","usercode":"qqq","sexid":"1","userpassword":null,"useremail":"ww@11.com","usermobile":null,"certificateid":"1","certificatename":"身份证","certificatecode":null,"birthdate":1483027200000,"registerdate":1483027200000,"platformid":null,"platformname":null,"levelid":"1","levelname":"运营用户","imageurl":null,"statusid":"1","statusname":"正常","remark":null,"creatorid":"test","creator":"admin","createtime":1483079890604,"modifierid":null,"modifier":null,"modifytime":null,"dr":0,"ts":1483079890798,"idSysUserJob":null},{"metaDefinedName":"sysUser","namespace":"metadata","status":0,"changedPropertyNames":null,"id":"36c3f17c-2592-46ca-8c1b-6192b3f153c9","orgid":"b96107c0-db63-4220-b8a2-4ba22846fb33","orgname":"用友新道科技公司","loginname":"22","username":"ww","usercode":"22","sexid":"1","userpassword":null,"useremail":"22@qq.com","usermobile":null,"certificateid":"1","certificatename":"身份证","certificatecode":null,"birthdate":1483027200000,"registerdate":1483027200000,"platformid":null,"platformname":null,"levelid":"1","levelname":"运营用户","imageurl":null,"statusid":"1","statusname":"正常","remark":null,"creatorid":"test","creator":"admin","createtime":1483067466863,"modifierid":null,"modifier":null,"modifytime":null,"dr":0,"ts":1483067466889,"idSysUserJob":null},{"metaDefinedName":"sysUser","namespace":"metadata","status":0,"changedPropertyNames":null,"id":"7f67bcbd-773f-4623-875e-9ecc03509668","orgid":"761dc79a-69ac-490b-8868-4e1e4f42d039","orgname":"用友网络科技股份有限公司","loginname":"威威","username":"qqq","usercode":"qq","sexid":"1","userpassword":null,"useremail":"qq@qq.com","usermobile":null,"certificateid":"1","certificatename":"身份证","certificatecode":null,"birthdate":1483027200000,"registerdate":1483027200000,"platformid":null,"platformname":null,"levelid":"1","levelname":"运营用户","imageurl":null,"statusid":"2","statusname":"冻结","remark":null,"creatorid":"test","creator":"admin","createtime":1483067358248,"modifierid":null,"modifier":null,"modifytime":null,"dr":0,"ts":1483067358412,"idSysUserJob":null},{"metaDefinedName":"sysUser","namespace":"metadata","status":0,"changedPropertyNames":null,"id":"f1da0f87-dc51-470a-9d72-acbe75010ec5","orgid":"f7ff9099-3230-4a13-83a9-a494e1e2c11b","orgname":"用友网络北京分公司","loginname":"qsb","username":"秦叔宝","usercode":"122102","sexid":"1","userpassword":null,"useremail":"qsb@163.com","usermobile":"13434545678","certificateid":"1","certificatename":"身份证","certificatecode":"371626198804152868","birthdate":1481558400000,"registerdate":1481558400000,"platformid":null,"platformname":null,"levelid":"1","levelname":"运营用户","imageurl":null,"statusid":"1","statusname":"正常","remark":null,"creatorid":"test","creator":"Admin","createtime":1481618630000,"modifierid":null,"modifier":null,"modifytime":null,"dr":0,"ts":1482301488000,"idSysUserJob":null},{"metaDefinedName":"sysUser","namespace":"metadata","status":0,"changedPropertyNames":null,"id":"a58fe7eb-97c3-4ae4-926f-5a4869b06851","orgid":"b5e399f5-6c08-4d81-a3a3-b39e73d7cdd8","orgname":"用友汽车","loginname":"fanrj","username":"樊汝钰","usercode":"122103","sexid":"1","userpassword":null,"useremail":"frj@163.com","usermobile":"15801351327","certificateid":"1","certificatename":"身份证","certificatecode":"42108319830528155X","birthdate":1481558400000,"registerdate":1481558400000,"platformid":null,"platformname":null,"levelid":"1","levelname":"运营用户","imageurl":null,"statusid":"1","statusname":"正常","remark":null,"creatorid":"test","creator":"Admin","createtime":1481608255000,"modifierid":null,"modifier":null,"modifytime":null,"dr":0,"ts":1482896165675,"idSysUserJob":null}],"last":false,"totalPages":3,"totalElements":15,"size":5,"number":0,"first":true,"sort":[{"direction":"DESC","property":"create_time","ignoreCase":false,"nullHandling":"NATIVE","ascending":false}],"numberOfElements":5}}}
