{"success":"success","message":null,"detailMsg":{"data":{"content":[{"pksystem":"70e27aa7-c4a7-4aa7-a330-b7ec441a8313","name":"邮件系统","code":"001","i18n":null,"gateway":"172.20.8.14","radiodatacontroller":"Y","radiodataassociate":"Y","combodatamodel":"Y","tag":null,"secretkey":null,"system":null,"tenant":null,"ts":null,"dr":0},{"pksystem":"37caed5b-0ff9-4ff1-9663-5e399fe8c88b","name":"决策系统","code":"002","i18n":null,"gateway":"172.20.8.15","radiodatacontroller":"Y","radiodataassociate":"Y","combodatamodel":"Y","tag":null,"secretkey":null,"system":null,"tenant":null,"ts":null,"dr":0},{"pksystem":"af527c77-5893-43a6-94f5-efd27deb9b42","name":"测试系统","code":"003","i18n":null,"gateway":"172.20.8.16","radiodatacontroller":"Y","radiodataassociate":"Y","combodatamodel":"Y","tag":null,"secretkey":null,"system":null,"tenant":null,"ts":null,"dr":0},{"pksystem":"6d106901-c737-4bd1-b238-f2251923e5ad","name":"报销系统","code":"004","i18n":null,"gateway":"172.20.8.17","radiodatacontroller":"Y","radiodataassociate":"Y","combodatamodel":"Y","tag":null,"secretkey":null,"system":null,"tenant":null,"ts":null,"dr":0},{"pksystem":"2fa142a7-2107-40fc-a3c4-2b5bd9a3643e","name":"考评系统","code":"005","i18n":null,"gateway":"172.20.8.18","radiodatacontroller":"Y","radiodataassociate":"Y","combodatamodel":"Y","tag":null,"secretkey":null,"system":null,"tenant":null,"ts":null,"dr":0}],"last":false,"totalPages":2,"totalElements":6,"size":5,"number":0,"first":true,"sort":[{"direction":"ASC","property":"createtime","ignoreCase":false,"nullHandling":"NATIVE","ascending":true}],"numberOfElements":5}}}
