{"success":"success","message":null,"detailMsg":{"data":{"content":[{"metaDefinedName":"sysUserJob","namespace":"metadata","status":0,"changedPropertyNames":null,"fk_id_sys_user_job":"a58fe7eb-97c3-4ae4-926f-5a4869b06851","id":"168fafad-e129-4888-a7bc-f870888c7b90","orgid":"40acd2f1-bb94-47ca-8854-0487f20b9697","orgname":"用友网络能源部","deptid":"383a50d4-5a78-4004-8fa0-932945cc0949","deptname":null,"userid":"a58fe7eb-97c3-4ae4-926f-5a4869b06851","username":"樊汝钰","isactive":"Y","isdefault":"N","userjobnote":"本职岗位","creatorid":"test","creator":"Admin","createtime":1482302437000,"modifierid":"a58fe7eb-97c3-4ae4-926f-5a4869b06851","modifier":"樊汝钰","modifytime":1482896165561,"dr":0,"ts":1482896166092},{"metaDefinedName":"sysUserJob","namespace":"metadata","status":0,"changedPropertyNames":null,"fk_id_sys_user_job":"a58fe7eb-97c3-4ae4-926f-5a4869b06851","id":"f3cc4211-dbd3-4595-9d16-7526c3a7e480","orgid":"b8728e89-b9f3-4a3b-9dac-7e5c9393f4cc","orgname":"用友网络建筑业务部","deptid":"383a50d4-5a78-4004-8fa0-932945cc0949","deptname":null,"userid":"a58fe7eb-97c3-4ae4-926f-5a4869b06851","username":"樊汝钰","isactive":"Y","isdefault":"N","userjobnote":"本职岗位","creatorid":"test","creator":"Admin","createtime":1482302437000,"modifierid":"a58fe7eb-97c3-4ae4-926f-5a4869b06851","modifier":"樊汝钰","modifytime":1482896165561,"dr":0,"ts":1482896166092},{"metaDefinedName":"sysUserJob","namespace":"metadata","status":0,"changedPropertyNames":null,"fk_id_sys_user_job":"a58fe7eb-97c3-4ae4-926f-5a4869b06851","id":"536ebbd4-8f56-4b43-9139-f4b3afa843c2","orgid":"b5e399f5-6c08-4d81-a3a3-b39e73d7cdd8","orgname":"用友汽车","deptid":"aa38692e-7398-436a-b2b8-a1440821774c","deptname":null,"userid":"a58fe7eb-97c3-4ae4-926f-5a4869b06851","username":"樊汝钰","isactive":"Y","isdefault":"N","userjobnote":"本职岗位","creatorid":"test","creator":"Admin","createtime":1482302437000,"modifierid":"a58fe7eb-97c3-4ae4-926f-5a4869b06851","modifier":"樊汝钰","modifytime":1482896165561,"dr":0,"ts":1482896166092},{"metaDefinedName":"sysUserJob","namespace":"metadata","status":0,"changedPropertyNames":null,"fk_id_sys_user_job":"a58fe7eb-97c3-4ae4-926f-5a4869b06851","id":"3b8abcab-6946-492d-9ee2-5ebfe028d4b3","orgid":"857cc73f-1a08-4053-b717-09404168f081","orgname":"用友网络大客户事业部","deptid":"ead53046-cf02-44ac-8ed1-23cee26f6159","deptname":null,"userid":"a58fe7eb-97c3-4ae4-926f-5a4869b06851","username":"樊汝钰","isactive":"Y","isdefault":"N","userjobnote":"本职岗位","creatorid":"test","creator":"Admin","createtime":1482302437000,"modifierid":"a58fe7eb-97c3-4ae4-926f-5a4869b06851","modifier":"樊汝钰","modifytime":1482896165561,"dr":0,"ts":1482896166092},{"metaDefinedName":"sysUserJob","namespace":"metadata","status":0,"changedPropertyNames":null,"fk_id_sys_user_job":"a58fe7eb-97c3-4ae4-926f-5a4869b06851","id":"6648490d-2b48-4bf5-9c15-57ba5e97ebcc","orgid":"b96107c0-db63-4220-b8a2-4ba22846fb33","orgname":"用友新道科技公司","deptid":"b676078b-a786-4c76-ab80-f5a9b7418e98","deptname":null,"userid":"a58fe7eb-97c3-4ae4-926f-5a4869b06851","username":"樊汝钰","isactive":"Y","isdefault":"N","userjobnote":"本职岗位","creatorid":"test","creator":"Admin","createtime":1482302437000,"modifierid":"a58fe7eb-97c3-4ae4-926f-5a4869b06851","modifier":"樊汝钰","modifytime":1482896165561,"dr":0,"ts":1482896166092}],"last":false,"totalPages":2,"totalElements":6,"size":5,"number":0,"first":true,"sort":[{"direction":"ASC","property":"create_time","ignoreCase":false,"nullHandling":"NATIVE","ascending":true}],"numberOfElements":5}}}
